[
{
    "id": 1,
    "name": "C#",
    "thumb": "img/1.jpg",
    "desc": "this is desc."
},
{
    "id": 2,
    "name": "C++",
    "thumb": "img/2.jpg",
    "desc": "this is desc."
},
{
    "id": 3,
    "name": ".Net",
    "thumb": "img/1.jpg",
    "desc": "this is desc."
},
{
    "id": 4,
    "name": "Android",
    "thumb": "img/3.jpg",
    "desc": "this is desc."
},
{
    "id": 5,
    "name": "Ios",
    "thumb": "img/1.jpg",
    "desc": "this is desc."
},
{
    "id": 6,
    "name": "HTML5",
    "thumb": "img/4.jpg",
    "desc": "this is desc."
},
{
    "id": 7,
    "name": "JavaScript",
    "thumb": "img/1.jpg",
    "desc": "this is desc."
},
{
    "id": 8,
    "name": "Css3",
    "thumb": "img/1.jpg",
    "desc": "this is desc."
},
{
    "id": 9,
    "name": "Ionic",
    "thumb": "img/5.jpg",
    "desc": "this is desc."
},
{
    "id": 10,
    "name": "AngularJS",
    "thumb": "img/1.jpg",
    "desc": "this is desc."
},
{
    "id": 11,
    "name": "Php",
    "thumb": "img/1.jpg",
    "desc": "this is desc."
},
{
    "id": 12,
    "name": "Java",
    "thumb": "img/1.jpg",
    "desc": "this is desc."
},
{
    "id": 13,
    "name": "C",
    "thumb": "img/1.jpg",
    "desc": "this is desc."
},
{
    "id": 14,
    "name": "SQL Server",
    "thumb": "img/1.jpg",
    "desc": "this is desc."
},
{
    "id": 15,
    "name": "Flash",
    "thumb": "img/7.jpg",
    "desc": "this is desc."
},
{
    "id": 16,
    "name": "MongoDB",
    "thumb": "img/6.jpg",
    "desc": "this is desc."
}
]